﻿## Interface: 70200
## Author: Zinmon
## Notes:   A simple combat attributes monitor
## Version: 0.1
## Title: |cffff0000Zinmon|r |cff00ff00StatMonitor|r (DK only)
## SavedVariables: StatusSave
StatMonitor.lua
